Lecture 11
…
## 
## -- Column specification --------------------------------------------------------
## cols(
##   source = col_character(),
##   id_str = col_double(),
##   text = col_character(),
##   created_at = col_datetime(format = ""),
##   retweet_count = col_double(),
##   in_reply_to_user_id_str = col_double(),
##   favorite_count = col_double(),
##   is_retweet = col_logical()
## )

## # A tibble: 35,219 x 8
##    source   id_str text       created_at          retweet_count in_reply_to_use~
##    <chr>     <dbl> <chr>      <dttm>                      <dbl>            <dbl>
##  1 Twitte~  6.97e9 "From Don~ 2009-12-23 17:38:18            28               NA
##  2 Twitte~  6.31e9 "Trump In~ 2009-12-03 19:39:09            33               NA
##  3 Twitte~  6.09e9 "Wishing ~ 2009-11-26 19:55:38            13               NA
##  4 Twitte~  5.78e9 "Donald T~ 2009-11-16 21:06:10             5               NA
##  5 Twitte~  5.36e9 "--Work h~ 2009-11-02 14:57:56             7               NA
##  6 Twitte~  5.20e9 "--From D~ 2009-10-27 15:31:48             4               NA
##  7 Twitte~  5.07e9 "Hear Don~ 2009-10-22 13:57:04             2               NA
##  8 Twitte~  4.86e9 "Watch vi~ 2009-10-14 14:13:17             4               NA
##  9 Twitte~  4.63e9 "- Read w~ 2009-10-05 14:37:38             1               NA
## 10 Twitte~  4.47e9 "\"A lot ~ 2009-09-29 15:28:23            23               NA
## # ... with 35,209 more rows, and 2 more variables: favorite_count <dbl>,
## #   is_retweet <lgl>
…
##  7 Instagram                  133
##  8 Facebook                   105
##  9 Twitter Ads                 97
## 10 Twitter for BlackBerry      97
## 11 Twitter for iPad            58
## 12 Mobile Web (M5)             56
## 13 Twitlonger                  23
## 14 Twitter QandA               10
## 15 Vine - Make a Scene         10
## 16 Periscope                    7
## 17 Neatly For BlackBerry 10     5
## 18 Twitter for Websites         1
## 19 Twitter Mirror for iPad      1

## # A tibble: 21,395 x 4
##     id_str source  text                                      created_at         
##      <dbl> <chr>   <chr>                                     <dttm>             
##  1 2.78e17 iPhone  "Good luck to Bob Kraft, Tom Brady, and ~ 2012-12-11 01:20:01
##  2 4.18e17 Android "Have a happy, successful and healthy Ne~ 2013-12-31 22:21:51
##  3 4.18e17 Android "When it comes to money, finance and eve~ 2013-12-31 22:19:28
##  4 4.18e17 Android "Spend your last day of 2013 contemplati~ 2013-12-31 11:48:59
##  5 4.18e17 Android "The con artists changed the name from G~ 2013-12-31 00:44:02
##  6 4.18e17 Android "What the hell is going on with GLOBAL W~ 2013-12-31 00:34:40
##  7 4.17e17 Android "\"@alefx33: Nelson Mandela and @realDon~ 2013-12-30 03:07:44
##  8 4.17e17 Android "Temperature at record lows in many part~ 2013-12-29 23:08:10
##  9 4.17e17 Android "In the upcoming New Year we will focus ~ 2013-12-28 22:51:14
## 10 4.17e17 Android "We're coming up on the NEW YEAR-It is r~ 2013-12-28 22:47:02
## # ... with 21,385 more rows
…
